^C:\USERS\EDUAR\SOURCE\REPOS\C++_16.5\X64\DEBUG\C++_16.5.OBJ
C:\USERS\EDUAR\SOURCE\REPOS\C++_16.5\X64\DEBUG\C++_16.5.EXE
C:\USERS\EDUAR\SOURCE\REPOS\C++_16.5\X64\DEBUG\C++_16.5.ILK
C:\USERS\EDUAR\SOURCE\REPOS\C++_16.5\X64\DEBUG\C++_16.5.PDB
